[
  {
    "key": "FR19002",
    "latitude": 48.10927,
    "longitude": -1.66582,
    "name": "Airbreizh boulevard Laënnec"
  },
  {
    "key": "FR19017",
    "latitude": 48.08879,
    "longitude": -1.66046,
    "name": "Airbreizh avenue des Pays-Bas"
  }
]
